67 
65 
67 
69 
67 
67 
64 
64 
65 
66 
65 
68 
64 
66 
67 
64 
65 
66 
64 
64 
64 
64 
64 
64 
64 
64 
64 
64 
64 
64 
64 
64 
64 
64 
64 
64 
64 
64 
64 
64 
64 
64 
64 
64 
64 
64 
64 
64 
64 
64 
64 
64 
64 
64 
70 
64 
66 
66 
64 
74 
64 
64 
65 
64 
64 
64 
69 
66 
64 
64 
65 
64 
67 
64 
64 
64 
64 
64 
64 
67 
64 
64 
64 
64 
64 
64 
64 
64 
64 
64 
64 
64 
64 
75 
64 
64 
64 
64 
64 
64 
66 
65 
64 
64 
67 
67 
67 
64 
64 
64 
64 
64 
64 
64 
64 
64 
67 
64 
66 
64 
66 
64 
66 
68 
67 
70 
65 
66 
69 
66 
65 
64 
65 
64 
69 
68 
64 
64 
64 
64 
64 
64 
64 
65 
64 
64 
64 
66 
64 
64 
64 
64 
64 
64 
64 
64 
64 
64 
64 
64 
64 
64 
67 
64 
64 
64 
64 
65 
66 
64 
64 
74 
64 
64 
64 
64 
64 
64 
70 
64 
70 
69 
66 
64 
64 
69 
64 
64 
64 
65 
64 
64 
64 
64 
64 
64 
64 
64 
64 
65 
64 
66 
64 
64 
64 
70 
64 
64 
64 
64 
70 
67 
68 
67 
73 
64 
82 
72 
67 
66 
64 
64 
64 
64 
64 
64 
64 
68 
64 
64 
64 
64 
64 
66 
65 
64 
73 
73 
64 
65 
