64 2013-01-02 14:47:53:524
64 2013-01-02 14:47:58:556
64 2013-01-02 14:48:03:569
64 2013-01-02 14:48:08:579
64 2013-01-02 14:48:13:591
64 2013-01-02 14:48:18:606
64 2013-01-02 14:48:23:616
64 2013-01-02 14:48:28:626
64 2013-01-02 14:48:33:635
64 2013-01-02 14:48:38:646
64 2013-01-02 14:48:43:658
64 2013-01-02 14:48:48:671
64 2013-01-02 14:48:53:682
64 2013-01-02 14:48:58:703
64 2013-01-02 14:49:03:710
64 2013-01-02 14:49:08:720
64 2013-01-02 14:49:13:726
64 2013-01-02 14:49:18:744
64 2013-01-02 14:49:23:754
64 2013-01-02 14:49:28:761
64 2013-01-02 14:49:33:769
64 2013-01-02 14:49:38:778
64 2013-01-02 14:49:43:786
64 2013-01-02 14:49:48:797
64 2013-01-02 14:49:53:806
64 2013-01-02 14:49:58:819
64 2013-01-02 14:50:03:829
64 2013-01-02 14:50:08:837
64 2013-01-02 14:50:13:849
64 2013-01-02 14:50:18:858
64 2013-01-02 14:50:23:877
64 2013-01-02 14:50:28:888
64 2013-01-02 14:50:33:908
64 2013-01-02 14:50:38:918
64 2013-01-02 14:50:43:926
64 2013-01-02 14:50:48:938
64 2013-01-02 14:50:53:949
64 2013-01-02 14:50:58:962
64 2013-01-02 14:51:03:973
64 2013-01-02 14:51:08:980
64 2013-01-02 14:51:13:993
64 2013-01-02 14:51:19:001
64 2013-01-02 14:51:24:018
64 2013-01-02 14:51:29:028
64 2013-01-02 14:51:34:039
64 2013-01-02 14:51:39:049
64 2013-01-02 14:51:44:057
64 2013-01-02 14:51:49:066
64 2013-01-02 14:51:54:077
64 2013-01-02 14:51:59:086
64 2013-01-02 14:52:04:095
64 2013-01-02 14:52:09:107
64 2013-01-02 14:52:14:117
64 2013-01-02 14:52:19:125
64 2013-01-02 14:52:24:134
64 2013-01-02 14:52:29:141
64 2013-01-02 14:52:34:149
64 2013-01-02 14:52:39:158
64 2013-01-02 14:52:44:167
64 2013-01-02 14:52:49:178
64 2013-01-02 14:52:54:185
64 2013-01-02 14:52:59:199
64 2013-01-02 14:53:04:211
64 2013-01-02 14:53:09:221
64 2013-01-02 14:53:14:230
64 2013-01-02 14:53:19:235
64 2013-01-02 14:53:24:243
64 2013-01-02 14:53:29:256
64 2013-01-02 14:53:34:267
64 2013-01-02 14:53:39:276
64 2013-01-02 14:53:44:285
64 2013-01-02 14:53:49:294
64 2013-01-02 14:53:54:300
64 2013-01-02 14:53:59:307
64 2013-01-02 14:54:04:314
64 2013-01-02 14:54:09:320
64 2013-01-02 14:54:14:327
64 2013-01-02 14:54:19:334
64 2013-01-02 14:54:24:343
64 2013-01-02 14:54:29:354
64 2013-01-02 14:54:34:360
64 2013-01-02 14:54:39:369
64 2013-01-02 14:54:44:379
64 2013-01-02 14:54:49:385
64 2013-01-02 14:54:54:402
64 2013-01-02 14:54:59:411
64 2013-01-02 14:55:04:416
64 2013-01-02 14:55:09:425
64 2013-01-02 14:55:14:433
64 2013-01-02 14:55:19:440
64 2013-01-02 14:55:24:447
64 2013-01-02 14:55:29:460
64 2013-01-02 14:55:34:468
64 2013-01-02 14:55:39:476
64 2013-01-02 14:55:44:483
64 2013-01-02 14:55:49:492
64 2013-01-02 14:55:54:502
64 2013-01-02 14:55:59:511
64 2013-01-02 14:56:04:518
64 2013-01-02 14:56:09:528
64 2013-01-02 14:56:14:533
64 2013-01-02 14:56:19:540
64 2013-01-02 14:56:24:549
64 2013-01-02 14:56:29:557
64 2013-01-02 14:56:34:567
64 2013-01-02 14:56:39:574
64 2013-01-02 14:56:44:582
64 2013-01-02 14:56:49:601
64 2013-01-02 14:56:54:610
64 2013-01-02 14:56:59:624
64 2013-01-02 14:57:04:632
64 2013-01-02 14:57:09:646
64 2013-01-02 14:57:14:654
64 2013-01-02 14:57:19:663
64 2013-01-02 14:57:24:671
64 2013-01-02 14:57:29:679
64 2013-01-02 14:57:34:685
64 2013-01-02 14:57:39:697
64 2013-01-02 14:57:44:706
64 2013-01-02 14:57:49:713
