64 2013-01-11 15:24:14:511
65 2013-01-11 15:24:19:544
64 2013-01-11 15:24:24:554
64 2013-01-11 15:24:29:563
64 2013-01-11 15:24:34:572
64 2013-01-11 15:24:39:580
64 2013-01-11 15:24:44:587
64 2013-01-11 15:24:49:592
64 2013-01-11 15:24:54:603
64 2013-01-11 15:24:59:610
64 2013-01-11 15:25:04:618
64 2013-01-11 15:25:09:623
64 2013-01-11 15:25:14:633
64 2013-01-11 15:25:19:644
64 2013-01-11 15:25:24:653
67 2013-01-11 15:25:29:668
64 2013-01-11 15:25:34:677
64 2013-01-11 15:25:39:685
64 2013-01-11 15:25:44:697
64 2013-01-11 15:25:49:712
64 2013-01-11 15:25:54:724
64 2013-01-11 15:25:59:735
64 2013-01-11 15:26:04:744
64 2013-01-11 15:26:09:754
64 2013-01-11 15:26:14:767
64 2013-01-11 15:26:19:775
64 2013-01-11 15:26:24:786
64 2013-01-11 15:26:29:798
64 2013-01-11 15:26:34:808
64 2013-01-11 15:26:39:817
64 2013-01-11 15:26:44:825
64 2013-01-11 15:26:49:836
64 2013-01-11 15:26:54:846
64 2013-01-11 15:26:59:856
64 2013-01-11 15:27:04:867
64 2013-01-11 15:27:09:874
64 2013-01-11 15:27:14:881
65 2013-01-11 15:27:19:891
67 2013-01-11 15:27:24:899
65 2013-01-11 15:27:29:911
64 2013-01-11 15:27:34:919
64 2013-01-11 15:27:39:927
64 2013-01-11 15:27:44:936
64 2013-01-11 15:27:49:943
65 2013-01-11 15:27:54:954
64 2013-01-11 15:27:59:961
64 2013-01-11 15:28:04:973
64 2013-01-11 15:28:09:984
64 2013-01-11 15:28:14:992
64 2013-01-11 15:28:19:999
64 2013-01-11 15:28:25:007
64 2013-01-11 15:28:30:013
64 2013-01-11 15:28:35:021
64 2013-01-11 15:28:40:027
64 2013-01-11 15:28:45:033
64 2013-01-11 15:28:50:040
64 2013-01-11 15:28:55:049
64 2013-01-11 15:29:00:058
64 2013-01-11 15:29:05:065
64 2013-01-11 15:29:10:073
64 2013-01-11 15:29:15:083
64 2013-01-11 15:29:20:093
64 2013-01-11 15:29:25:100
64 2013-01-11 15:29:30:108
66 2013-01-11 15:29:35:113
67 2013-01-11 15:29:40:118
68 2013-01-11 15:29:45:129
65 2013-01-11 15:29:50:134
64 2013-01-11 15:29:55:138
65 2013-01-11 15:30:00:144
64 2013-01-11 15:30:05:152
64 2013-01-11 15:30:10:161
64 2013-01-11 15:30:15:168
64 2013-01-11 15:30:20:175
64 2013-01-11 15:30:25:180
64 2013-01-11 15:30:30:188
66 2013-01-11 15:30:35:194
64 2013-01-11 15:30:40:202
64 2013-01-11 15:30:45:209
64 2013-01-11 15:30:50:215
64 2013-01-11 15:30:55:223
64 2013-01-11 15:31:00:233
64 2013-01-11 15:31:05:239
64 2013-01-11 15:31:10:248
64 2013-01-11 15:31:15:258
65 2013-01-11 15:31:20:264
64 2013-01-11 15:31:25:271
64 2013-01-11 15:31:30:283
68 2013-01-11 15:31:35:290
64 2013-01-11 15:31:40:296
64 2013-01-11 15:31:45:304
64 2013-01-11 15:31:50:312
64 2013-01-11 15:31:55:323
64 2013-01-11 15:32:00:330
64 2013-01-11 15:32:05:340
64 2013-01-11 15:32:10:346
64 2013-01-11 15:32:15:355
64 2013-01-11 15:32:20:363
64 2013-01-11 15:32:25:370
64 2013-01-11 15:32:30:381
64 2013-01-11 15:32:35:387
64 2013-01-11 15:32:40:395
64 2013-01-11 15:32:45:402
64 2013-01-11 15:32:50:408
64 2013-01-11 15:32:55:418
64 2013-01-11 15:33:00:424
64 2013-01-11 15:33:05:432
64 2013-01-11 15:33:10:440
64 2013-01-11 15:33:15:452
64 2013-01-11 15:33:20:458
64 2013-01-11 15:33:25:465
64 2013-01-11 15:33:30:472
64 2013-01-11 15:33:35:486
64 2013-01-11 15:33:40:491
64 2013-01-11 15:33:45:502
64 2013-01-11 15:33:50:508
64 2013-01-11 15:33:55:518
64 2013-01-11 15:34:00:524
64 2013-01-11 15:34:05:533
64 2013-01-11 15:34:10:539
