76 2012-12-31 12:40:16:348
70 2012-12-31 12:40:21:389
73 2012-12-31 12:40:26:396
68 2012-12-31 12:40:31:405
70 2012-12-31 12:40:36:416
71 2012-12-31 12:40:41:422
71 2012-12-31 12:40:46:433
72 2012-12-31 12:40:51:443
69 2012-12-31 12:40:56:456
73 2012-12-31 12:41:01:464
72 2012-12-31 12:41:06:482
76 2012-12-31 12:41:11:491
74 2012-12-31 12:41:16:503
78 2012-12-31 12:41:21:526
69 2012-12-31 12:41:26:533
79 2012-12-31 12:41:31:538
73 2012-12-31 12:41:36:542
73 2012-12-31 12:41:41:549
77 2012-12-31 12:41:46:563
81 2012-12-31 12:41:51:569
77 2012-12-31 12:41:56:577
74 2012-12-31 12:42:01:584
77 2012-12-31 12:42:06:592
74 2012-12-31 12:42:11:599
74 2012-12-31 12:42:16:609
76 2012-12-31 12:42:21:618
73 2012-12-31 12:42:26:625
73 2012-12-31 12:42:31:633
70 2012-12-31 12:42:36:641
75 2012-12-31 12:42:41:652
75 2012-12-31 12:42:46:657
75 2012-12-31 12:42:51:667
73 2012-12-31 12:42:56:675
75 2012-12-31 12:43:01:689
75 2012-12-31 12:43:06:694
74 2012-12-31 12:43:11:703
72 2012-12-31 12:43:16:716
82 2012-12-31 12:43:21:723
70 2012-12-31 12:43:26:735
66 2012-12-31 12:43:31:743
68 2012-12-31 12:43:36:750
71 2012-12-31 12:43:41:756
73 2012-12-31 12:43:46:763
74 2012-12-31 12:43:51:772
77 2012-12-31 12:43:56:783
67 2012-12-31 12:44:01:793
70 2012-12-31 12:44:06:799
77 2012-12-31 12:44:11:810
75 2012-12-31 12:44:16:818
70 2012-12-31 12:44:21:826
73 2012-12-31 12:44:26:845
71 2012-12-31 12:44:31:853
68 2012-12-31 12:44:36:859
77 2012-12-31 12:44:41:869
72 2012-12-31 12:44:46:877
69 2012-12-31 12:44:51:886
75 2012-12-31 12:44:56:895
72 2012-12-31 12:45:01:905
70 2012-12-31 12:45:06:913
67 2012-12-31 12:45:11:920
73 2012-12-31 12:45:16:928
72 2012-12-31 12:45:21:937
72 2012-12-31 12:45:26:948
70 2012-12-31 12:45:31:957
71 2012-12-31 12:45:36:965
76 2012-12-31 12:45:41:974
70 2012-12-31 12:45:46:987
72 2012-12-31 12:45:51:996
70 2012-12-31 12:45:57:005
73 2012-12-31 12:46:02:013
73 2012-12-31 12:46:07:021
74 2012-12-31 12:46:12:027
72 2012-12-31 12:46:17:033
77 2012-12-31 12:46:22:041
76 2012-12-31 12:46:27:049
73 2012-12-31 12:46:32:058
69 2012-12-31 12:46:37:066
68 2012-12-31 12:46:42:075
70 2012-12-31 12:46:47:081
71 2012-12-31 12:46:52:088
67 2012-12-31 12:46:57:096
68 2012-12-31 12:47:02:106
75 2012-12-31 12:47:07:114
73 2012-12-31 12:47:12:119
74 2012-12-31 12:47:17:127
75 2012-12-31 12:47:22:139
73 2012-12-31 12:47:27:146
74 2012-12-31 12:47:32:154
72 2012-12-31 12:47:37:162
74 2012-12-31 12:47:42:175
72 2012-12-31 12:47:47:185
72 2012-12-31 12:47:52:193
71 2012-12-31 12:47:57:201
71 2012-12-31 12:48:02:209
68 2012-12-31 12:48:07:221
72 2012-12-31 12:48:12:228
79 2012-12-31 12:48:17:235
71 2012-12-31 12:48:22:243
69 2012-12-31 12:48:27:249
76 2012-12-31 12:48:32:255
74 2012-12-31 12:48:37:262
73 2012-12-31 12:48:42:268
75 2012-12-31 12:48:47:276
71 2012-12-31 12:48:52:284
72 2012-12-31 12:48:57:290
71 2012-12-31 12:49:02:300
72 2012-12-31 12:49:07:308
77 2012-12-31 12:49:12:315
72 2012-12-31 12:49:17:325
70 2012-12-31 12:49:22:341
71 2012-12-31 12:49:27:349
77 2012-12-31 12:49:32:356
76 2012-12-31 12:49:37:362
78 2012-12-31 12:49:42:368
74 2012-12-31 12:49:47:377
72 2012-12-31 12:49:52:382
69 2012-12-31 12:49:57:391
73 2012-12-31 12:50:02:400
68 2012-12-31 12:50:07:407
78 2012-12-31 12:50:12:416
